Assignment 04
…
# Cleaning and Combining Data

(vis01 <- data %>%
    filter(qb2 != 9, !is.na(qb2))%>%
    mutate(state = str_pad(state, side = "left", pad = "0", width = 2)) %>%
    select(state, respid, qb2) %>%
    rename(STATEFP = state) %>%
    group_by(STATEFP, qb2) %>%
    summarize(qb_count = n())
)

# A tibble: 102 × 3
# Groups:   STATEFP [51]
   STATEFP qb2              qb_count
   <chr>   <dbl+lbl>           <int>
 1 01      1 [Satisfied]          13
 2 01      2 [Dissatisfied]       42
 3 02      1 [Satisfied]           4
 4 02      2 [Dissatisfied]        5
 5 04      1 [Satisfied]          20
 6 04      2 [Dissatisfied]       54
 7 05      1 [Satisfied]           4
 8 05      2 [Dissatisfied]       30
 9 06      1 [Satisfied]         127
10 06      2 [Dissatisfied]      186
# … with 92 more rows

(state_total <- data %>%
    filter(qb2 != 9, !is.na(qb2))%>%
    mutate(state = str_pad(state, side = "left", pad = "0", width = 2)) %>%
    select(state, respid, qb2) %>%
    rename(STATEFP = state) %>%
    group_by(STATEFP) %>%
    summarize(state_count = n())
)

# A tibble: 51 × 2
   STATEFP state_count
   <chr>         <int>
 1 01               55
 2 02                9
 3 04               74
 4 05               34
 5 06              313
 6 08               52
 7 09               33
 8 10               15
 9 11               13
10 12              187
# … with 41 more rows

(vis01 <- left_join(state_total, vis01, by = "STATEFP") %>%
  mutate(percent = qb_count/state_count) %>%
    filter(qb2 != 2)
)

# A tibble: 51 × 5
   STATEFP state_count qb2           qb_count percent
   <chr>         <int> <dbl+lbl>        <int>   <dbl>
 1 01               55 1 [Satisfied]       13  0.236 
 2 02                9 1 [Satisfied]        4  0.444 
 3 04               74 1 [Satisfied]       20  0.270 
 4 05               34 1 [Satisfied]        4  0.118 
 5 06              313 1 [Satisfied]      127  0.406 
 6 08               52 1 [Satisfied]       17  0.327 
 7 09               33 1 [Satisfied]        6  0.182 
 8 10               15 1 [Satisfied]        1  0.0667
 9 11               13 1 [Satisfied]        4  0.308 
10 12              187 1 [Satisfied]       50  0.267 
# … with 41 more rows
…
